Встреча Байеса и Ципфа, или Как измерить различия в частотности слов
…
## # A tibble: 6 × 3
##   lemma    Freq    ipm
##   <chr>   <dbl>  <dbl>
## 1 и     2884904 36135.
## 2 в     1885078 23611.
## 3 не    1754134 21971.
## 4 на    1425859 17859.
## 5 он    1410058 17662.
## 6 я     1320033 16534.

Редкие слова:

tail(dcfreq, 30)

## # A tibble: 30 × 3
##    lemma          Freq    ipm
##    <chr>         <dbl>  <dbl>
##  1 зафурмыкать       1 0.0125
##  2 блюкнуть          1 0.0125
##  3 астралиец         1 0.0125
##  4 одождать          1 0.0125
##  5 зафутболивать     1 0.0125
##  6 зафурыкать        1 0.0125
##  7 яэто              1 0.0125
##  8 одолжениии        1 0.0125
##  9 одоливать         1 0.0125
## 10 одолженьице       1 0.0125
## # ℹ 20 more rows
…
Добавим значение G2, отсортируем по его величине:

c.ll <- c.wide %>%
    mutate(g2 = g2(c1, c2)) %>%
    arrange(desc(g2))
c.ll

## # A tibble: 21,965 × 4
##    lemma          c1    c2    g2
##    <chr>       <int> <int> <dbl>
##  1 топать         10     0 13.9 
##  2 художник       14     1 13.4 
##  3 асфальт         9     0 12.5 
##  4 победа          9     0 12.5 
##  5 стадо           9     0 12.5 
##  6 одиночество     8     0 11.1 
##  7 вцепляться      0     8 11.1 
##  8 шестой          0     8 11.1 
##  9 глубоко         1    12 11.0 
## 10 поводить       16     3  9.77
## # ℹ 21,955 more rows
…
s1 <- generate_freqlist(1e5, dc.tse$lemma, dc.tse$p1)
s2 <- generate_freqlist(1e5, dc.tse$lemma, dc.tse$p2)
s.wide <- bind_rows(c1=s1, c2=s2, .id="corpus") %>%
    group_by(corpus) %>%
    pivot_wider(names_from = corpus, values_from = n, values_fill = 0)

Рассчитаем G2:

s.ll <- s.wide %>%
    mutate(g2 = g2(c1, c2)) %>%
    arrange(desc(g2))
s.ll

## # A tibble: 21,561 × 4
##    lemma          c1    c2    g2
##    <chr>       <int> <int> <dbl>
##  1 целый          37    76 13.7 
##  2 бесконечный     9     0 12.5 
##  3 выписывать      0     9 12.5 
##  4 гнездо          0     9 12.5 
##  5 крупный        16     2 12.4 
##  6 паспорт         8     0 11.1 
##  7 вновь           4    19 10.6 
##  8 гордо          11     1  9.75
##  9 листок          1    11  9.75
## 10 мешок          22     6  9.72
## # ℹ 21,551 more rows
…
